{
  "generatedAt": "2026-06-14T09:18:00",
  "view": "history",
  "heading": "History",
  "page": 0,
  "pageSize": 30,
  "returnedCount": 6,
  "totalCount": 184,
  "countText": "184 games",
  "hasMore": true,
  "isEmpty": false,
  "emptyMessage": "No games recorded yet.",
  "items": [
    {
      "gameId": 5581701721,
      "championName": "Sivir",
      "enemyChampion": "Senna",
      "gameRole": "BOTTOM",
      "win": true,
      "winLossText": "W",
      "kills": 4,
      "deaths": 2,
      "assists": 12,
      "kdaRatio": 8.0,
      "kdaText": "4/2/12",
      "kdaRatioText": "(8.0)",
      "csTotal": 269,
      "csPerMin": 9.2,
      "visionScore": 18,
      "totalDamageToChampions": 32362,
      "duration": "29:05",
      "datePlayed": "Jun 14, 12:32",
      "gameMode": "Ranked Solo/Duo",
      "winLossColorHex": "#8ee7ba",
      "borderColorHex": "#8ee7ba",
      "hasReview": true,
      "damageText": "32.4k",
      "statsLine": "CS 269 (9.2/m)  ·  32.4k dmg",
      "metaLine": "RANKED SOLO/DUO  ·  JUN 14, 12:32  ·  29:05",
      "hasVod": true,
      "objectivePracticed": true,
      "hasObjectiveEvidence": true,
      "objectiveStateText": "Evidence tagged",
      "reviewStateText": "Reviewed",
      "vodStateText": "VOD linked",
      "primaryAction": "Watch VOD",
      "action": "open_review"
    },
    {
      "gameId": 5581655110,
      "championName": "Jinx",
      "enemyChampion": "Caitlyn",
      "gameRole": "BOTTOM",
      "win": false,
      "winLossText": "L",
      "kills": 3,
      "deaths": 7,
      "assists": 5,
      "kdaRatio": 1.14,
      "kdaText": "3/7/5",
      "kdaRatioText": "(1.1)",
      "csTotal": 184,
      "csPerMin": 6.1,
      "visionScore": 14,
      "totalDamageToChampions": 18430,
      "duration": "27:48",
      "datePlayed": "Jun 14, 11:58",
      "gameMode": "Ranked Solo/Duo",
      "winLossColorHex": "#f3a3a8",
      "borderColorHex": "#f3a3a8",
      "hasReview": true,
      "damageText": "18.4k",
      "statsLine": "CS 184 (6.1/m)  ·  18.4k dmg",
      "metaLine": "RANKED SOLO/DUO  ·  JUN 14, 11:58  ·  27:48",
      "hasVod": true,
      "objectivePracticed": true,
      "hasObjectiveEvidence": false,
      "objectiveStateText": "VOD evidence pending",
      "reviewStateText": "Reviewed",
      "vodStateText": "VOD linked",
      "primaryAction": "Watch VOD",
      "action": "open_review"
    },
    {
      "gameId": 5581012044,
      "championName": "Kai'Sa",
      "enemyChampion": "Ezreal",
      "gameRole": "BOTTOM",
      "win": true,
      "winLossText": "W",
      "kills": 11,
      "deaths": 4,
      "assists": 9,
      "kdaRatio": 5.0,
      "kdaText": "11/4/9",
      "kdaRatioText": "(5.0)",
      "csTotal": 241,
      "csPerMin": 8.4,
      "visionScore": 22,
      "totalDamageToChampions": 41205,
      "duration": "28:42",
      "datePlayed": "Jun 13, 22:14",
      "gameMode": "Ranked Solo/Duo",
      "winLossColorHex": "#8ee7ba",
      "borderColorHex": "#8ee7ba",
      "hasReview": true,
      "damageText": "41.2k",
      "statsLine": "CS 241 (8.4/m)  ·  41.2k dmg",
      "metaLine": "RANKED SOLO/DUO  ·  JUN 13, 22:14  ·  28:42",
      "hasVod": false,
      "objectivePracticed": true,
      "hasObjectiveEvidence": false,
      "objectiveStateText": "Objective practiced",
      "reviewStateText": "Reviewed",
      "vodStateText": "No VOD",
      "primaryAction": "Open",
      "action": "open_review"
    },
    {
      "gameId": 5580944831,
      "championName": "Ashe",
      "enemyChampion": "Lucian",
      "gameRole": "BOTTOM",
      "win": false,
      "winLossText": "L",
      "kills": 2,
      "deaths": 5,
      "assists": 14,
      "kdaRatio": 3.2,
      "kdaText": "2/5/14",
      "kdaRatioText": "(3.2)",
      "csTotal": 198,
      "csPerMin": 6.8,
      "visionScore": 41,
      "totalDamageToChampions": 21788,
      "duration": "29:18",
      "datePlayed": "Jun 13, 21:30",
      "gameMode": "Ranked Solo/Duo",
      "winLossColorHex": "#f3a3a8",
      "borderColorHex": "#f3a3a8",
      "hasReview": false,
      "damageText": "21.8k",
      "statsLine": "CS 198 (6.8/m)  ·  21.8k dmg",
      "metaLine": "RANKED SOLO/DUO  ·  JUN 13, 21:30  ·  29:18",
      "hasVod": true,
      "objectivePracticed": false,
      "hasObjectiveEvidence": false,
      "objectiveStateText": "No objective tag",
      "reviewStateText": "Unreviewed",
      "vodStateText": "VOD linked",
      "primaryAction": "Watch VOD",
      "action": "open_review"
    },
    {
      "gameId": 5580217709,
      "championName": "Xayah",
      "enemyChampion": "Jhin",
      "gameRole": "BOTTOM",
      "win": true,
      "winLossText": "W",
      "kills": 8,
      "deaths": 3,
      "assists": 7,
      "kdaRatio": 5.0,
      "kdaText": "8/3/7",
      "kdaRatioText": "(5.0)",
      "csTotal": 255,
      "csPerMin": 8.9,
      "visionScore": 16,
      "totalDamageToChampions": 35110,
      "duration": "28:36",
      "datePlayed": "Jun 12, 20:05",
      "gameMode": "Normal Draft",
      "winLossColorHex": "#8ee7ba",
      "borderColorHex": "#8ee7ba",
      "hasReview": false,
      "damageText": "35.1k",
      "statsLine": "CS 255 (8.9/m)  ·  35.1k dmg",
      "metaLine": "NORMAL DRAFT  ·  JUN 12, 20:05  ·  28:36",
      "hasVod": false,
      "objectivePracticed": false,
      "hasObjectiveEvidence": false,
      "objectiveStateText": "No objective tag",
      "reviewStateText": "Unreviewed",
      "vodStateText": "No VOD",
      "primaryAction": "Review",
      "action": "open_review"
    },
    {
      "gameId": 5579880123,
      "championName": "Varus",
      "enemyChampion": "Draven",
      "gameRole": "BOTTOM",
      "win": false,
      "winLossText": "L",
      "kills": 5,
      "deaths": 8,
      "assists": 6,
      "kdaRatio": 1.38,
      "kdaText": "5/8/6",
      "kdaRatioText": "(1.4)",
      "csTotal": 211,
      "csPerMin": 7.0,
      "visionScore": 19,
      "totalDamageToChampions": 27640,
      "duration": "30:11",
      "datePlayed": "Jun 12, 19:21",
      "gameMode": "Ranked Solo/Duo",
      "winLossColorHex": "#f3a3a8",
      "borderColorHex": "#f3a3a8",
      "hasReview": true,
      "damageText": "27.6k",
      "statsLine": "CS 211 (7.0/m)  ·  27.6k dmg",
      "metaLine": "RANKED SOLO/DUO  ·  JUN 12, 19:21  ·  30:11",
      "hasVod": false,
      "objectivePracticed": false,
      "hasObjectiveEvidence": false,
      "objectiveStateText": "No objective tag",
      "reviewStateText": "Reviewed",
      "vodStateText": "No VOD",
      "primaryAction": "Open",
      "action": "open_review"
    }
  ]
}
